{
 "App_Data": {
        "is_override": false,
        "app_name": "yoyo",
        "server_address": "https://meet.jit.si",
        "min_dialing_time": 1,
        "call_timeout": 60,
        "spam_user_ids_limit":10,
        "socket_server_address":"http://185.227.135.94:8081",
        "is_random_self_id": false,
        "live_call_duration_seconds":30,
        "video_call_config":{
         "is_audio_only": false,
         "is_audio_muted": false,
         "is_video_muted": false,
         "subject_text": "Calling...",
         "avatar_url":"",
         "add_people_enable": false,
         "invite_enabled": false,
         "calendar_enabled": false,
         "welcome_page_enabled": false,
         "raise_hand_enabled": false,
         "meeting_name_enabled": false,
         "meeting_password_enabled": false,
         "close_captions_enabled": false,
         "chat_enabled": true,
         "live_streaming_enabled": false,
         "tile_view_enabled": false,
         "toolbox_always_visible": false,
         "recording_enabled": false,
         "ios_recording_enabled": false,
         "call_integration_enabled": false,
         "pip_enabled": false,
         "isCallIntegrationEnabled": false,
         "isConferenceTimerEnabled": false,
         "isFilmstripEnabled": true,
         "isFullscreenEnabled":false,
         "isHelpButtonEnabled": false,
         "isIosScreensharingEnabled":false,
         "isAndroidScreensharingEnabled": false,
         "isKickoutEnabled":false,
         "isLobbyModeEnabled": false,
         "isNotificationsEnabled":false,
         "isOverflowMenuEnabled": false,
         "isReactionsEnabled":false,
         "isReplaceParticipantEnabled": false,
         "resolution":false,
         "areSecurityOptionsEnabled": false,
         "isServerUrlChangeEnabled":false,
         "isTileViewEnabled": false,
         "isToolboxAlwaysVisible":false,
         "isToolboxEnabled": false,
         "isVideoMuteButtonEnabled":false,
         "isVideoShareButtonEnabled": false
        },
        "call_timeout_offer_dialog":{
         "is_show": true,
         "is_show_every_time": true,
         "talk_time_title":"Talk time seconds : ",
         "level1_title":"Offer",
         "level1_value": 2,
         "level1_button":"rate us",
         "level1_message":"You have limited talktime per call.\n\n To increase your talktime limit with multiply by two, Please Rate Us.",
         "level2_title":"Offer",
         "level2_value": 4,
         "level2_button":"share app",
         "level2_message":"You have limited talktime per call.\n\n To get unlimited talktime per call, Please Share app with your friends.",
         "success_title":"Offer",
         "success_value": "Unlimited",
         "success_message":"Thank you rating and sharing app.\nNow you unlimited talktime per call."
        }
      }
}
